<?xml version="1.0" encoding="UTF-8"?>
<svg xmlns="http://www.w3.org/2000/svg" xmlns:xlink="http://www.w3.org/1999/xlink" width="200pt" height="200pt" viewBox="0 0 200 200" version="1.1">
<g id="surface1">
<path style=" stroke:none;fill-rule:evenodd;fill:rgb(0%,0%,0%);fill-opacity:1;" d="M 97.382812 2.261719 C 96.425781 2.863281 91.257812 7.785156 85.902344 13.199219 C 74.949219 24.269531 74.484375 25.15625 77.863281 28.53125 C 80.777344 31.449219 81.957031 30.988281 88.746094 24.308594 L 94.765625 18.382812 L 94.777344 43.929688 C 94.785156 71.539062 94.800781 71.6875 97.90625 73.175781 C 100.367188 74.355469 102.949219 73.429688 104.214844 70.917969 C 105.136719 69.085938 105.230469 66.523438 105.230469 43.617188 L 105.234375 18.335938 L 110.902344 23.949219 C 114.019531 27.035156 117.09375 29.636719 117.734375 29.726562 C 121.285156 30.21875 124.289062 27.226562 123.5625 23.914062 C 123.203125 22.273438 104.398438 3.058594 101.929688 1.804688 C 100.175781 0.917969 99.402344 0.996094 97.382812 2.261719 M 38.535156 63.339844 C 29.828125 66.460938 22.300781 69.355469 21.800781 69.769531 C 20.59375 70.769531 1.84375 102.019531 1.40625 103.753906 C 0.800781 106.167969 2.574219 108.511719 5.949219 109.769531 C 22.542969 115.941406 80.355469 136.046875 81.511719 136.046875 C 83.886719 136.046875 85.214844 134.527344 90.132812 126.164062 L 94.746094 118.3125 L 94.757812 152.464844 L 94.765625 186.617188 L 91.132812 185.265625 C 89.136719 184.523438 74.617188 179.355469 58.871094 173.789062 L 30.242188 163.664062 L 30.234375 147.382812 C 30.230469 133.050781 30.109375 130.863281 29.214844 129.082031 C 27.28125 125.234375 22.246094 125.425781 20.582031 129.410156 C 19.070312 133.023438 19.636719 168.734375 21.230469 170.324219 C 21.941406 171.039062 37.617188 176.886719 61.207031 185.242188 L 100.011719 198.988281 L 138.796875 185.25 C 162.554688 176.835938 178.039062 171.054688 178.761719 170.332031 C 179.910156 169.1875 179.945312 168.386719 180.109375 141.972656 L 180.277344 114.789062 L 188.359375 111.984375 C 201.589844 107.398438 201.589844 108.300781 188.34375 86.371094 L 178.199219 69.570312 L 161.335938 63.574219 C 142.5625 56.898438 142.453125 56.875 140.070312 59.257812 C 135.886719 63.441406 138.195312 65.894531 150.40625 70.242188 L 159.824219 73.597656 L 129.9375 84.152344 L 100.054688 94.707031 L 70.8125 84.359375 C 54.726562 78.671875 41.191406 73.890625 40.734375 73.742188 C 40.273438 73.59375 44.191406 71.925781 49.445312 70.03125 C 59.941406 66.246094 61.046875 65.527344 61.046875 62.472656 C 61.046875 56.179688 58.195312 56.289062 38.535156 63.339844 M 59.996094 91.070312 C 77.683594 97.347656 92.226562 102.546875 92.320312 102.621094 C 92.542969 102.804688 80.277344 123.324219 79.332031 124.34375 C 78.714844 125.011719 73.324219 123.265625 46.09375 113.597656 L 13.589844 102.050781 L 20.308594 90.851562 C 24.007812 84.691406 27.214844 79.652344 27.4375 79.652344 C 27.660156 79.652344 42.3125 84.789062 59.996094 91.070312 M 179.691406 90.851562 L 186.414062 102.050781 L 153.910156 113.601562 C 126.609375 123.300781 121.292969 125.019531 120.671875 124.347656 C 119.730469 123.332031 107.453125 102.804688 107.679688 102.628906 C 108.058594 102.335938 171.847656 79.714844 172.386719 79.683594 C 172.707031 79.664062 175.992188 84.691406 179.691406 90.851562 "/>
</g>
</svg>
